{
  "AF": "fr-afghanistan",
  "CO": "fr-colombia",
  "CF": "fr-den-sentralafrikanske-republikk",
  "DJ": "fr-djibouti",
  "CD": "fr-dr-kongo",
  "EC": "fr-ecuador",
  "ER": "fr-eritrea",
  "ET": "fr-etiopia",
  "GR": "fr-hellas",
  "HN": "fr-honduras",
  "IQ": "fr-irak",
  "IR": "fr-iran",
  "YE": "fr-jemen",
  "JO": "fr-jordan",
  "CM": "fr-kamerun",
  "KE": "fr-kenya",
  "LB": "fr-libanon",
  "ML": "fr-mali",
  "MM": "fr-myanmar",
  "NG": "fr-nigeria",
  "PS": "fr-palestina",
  "PA": "fr-panama",
  "SO": "fr-somalia",
  "SY": "fr-syria",
  "SS": "fr-sor-sudan",
  "TZ": "fr-tanzania",
  "UG": "fr-uganda",
  "UA": "fr-ukraina",
  "VE": "fr-venezuela",
  "AZ": "fr-aserbajdsjan",
  "AU": "fr-australia",
  "BD": "fr-bangladesh",
  "BI": "fr-burundi",
  "CA": "fr-canada",
  "EG": "fr-egypt",
  "SV": "fr-el-salvador",
  "PH": "fr-filippinene",
  "FR": "fr-frankrike",
  "GM": "fr-gambia",
  "IN": "fr-india",
  "IT": "fr-italia",
  "CN": "fr-kina",
  "CG": "fr-kongo-brazzaville",
  "MX": "fr-mexico",
  "NE": "fr-niger",
  "NO": "fr-norge",
  "PK": "fr-pakistan",
  "RW": "fr-rwanda",
  "SD": "fr-sudan",
  "SE": "fr-sverige",
  "TD": "fr-tsjad",
  "TR": "fr-tyrkia",
  "DE": "fr-tyskland",
  "US": "fr-usa",
  "VN": "fr-vietnam",
  "AT": "fr-osterrike"
}
